<svg xmlns="http://www.w3.org/2000/svg" width="26.636" height="26.636" viewBox="0 0 26.636 26.636">
  <g id="Group_2360" data-name="Group 2360" transform="translate(-0.5 -0.5)">
    <path id="Path_1573" data-name="Path 1573" d="M13.818.5A13.318,13.318,0,1,0,27.136,13.818,13.333,13.333,0,0,0,13.818.5Zm0,24.058a10.74,10.74,0,1,1,10.74-10.74A10.752,10.752,0,0,1,13.818,24.558Z" fill="#fff"/>
    <path id="Path_1574" data-name="Path 1574" d="M16,7a1.357,1.357,0,0,0-1.5,1.136V15.36A1.357,1.357,0,0,0,16,16.5a1.357,1.357,0,0,0,1.5-1.136V8.136A1.357,1.357,0,0,0,16,7Zm0,10.538a1.357,1.357,0,0,0-1.5,1.136V19.5A1.357,1.357,0,0,0,16,20.636,1.357,1.357,0,0,0,17.5,19.5v-.825A1.357,1.357,0,0,0,16,17.538Z" transform="translate(-2.182)" fill="#fff"/>
  </g>
</svg>
