<svg xmlns="http://www.w3.org/2000/svg" width="1920" height="978" viewBox="0 0 1920 978">
  <rect id="Rectangle_938" data-name="Rectangle 938" width="1920" height="978" fill="#518cb7" opacity="0.53"/>
</svg>
